^D:\PRAKASD\CONSOLEAPPLICATION1\CONSOLEAPPLICATION1\AFFANSTACK.CPP
/c /ZI /nologo /W3 /WX- /Od /Oy- /D WIN32 /D _DEBUG /D _CONSOLE /D _LIB /D _UNICODE /D UNICODE /Gm /EHsc /RTC1 /MDd /GS /fp:precise /Zc:wchar_t /Zc:forScope /Fo"DEBUG\\" /Fd"DEBUG\VC120.PDB" /Gd /TP /analyze- D:\PRAKASD\CONSOLEAPPLICATION1\CONSOLEAPPLICATION1\AFFANSTACK.CPP
^D:\PRAKASD\CONSOLEAPPLICATION1\CONSOLEAPPLICATION1\QUEUEAFFAN.CPP
/c /ZI /nologo /W3 /WX- /Od /Oy- /D WIN32 /D _DEBUG /D _CONSOLE /D _LIB /D _UNICODE /D UNICODE /Gm /EHsc /RTC1 /MDd /GS /fp:precise /Zc:wchar_t /Zc:forScope /Fo"DEBUG\\" /Fd"DEBUG\VC120.PDB" /Gd /TP /analyze- D:\PRAKASD\CONSOLEAPPLICATION1\CONSOLEAPPLICATION1\QUEUEAFFAN.CPP
