^D:\PRAKASD\CONSOLEAPPLICATION1\TUGASSLL\SLL.CPP
D:\PRAKASD\CONSOLEAPPLICATION1\TUGASSLL\DEBUG\VC120.PDB
D:\PRAKASD\CONSOLEAPPLICATION1\TUGASSLL\DEBUG\VC120.IDB
D:\PRAKASD\CONSOLEAPPLICATION1\TUGASSLL\DEBUG\SLL.OBJ
