^D:\PRAKASD\CONSOLEAPPLICATION1\STACKUSINGLINKEDLIST\STACK.CPP
D:\PRAKASD\CONSOLEAPPLICATION1\STACKUSINGLINKEDLIST\DEBUG\VC120.PDB
D:\PRAKASD\CONSOLEAPPLICATION1\STACKUSINGLINKEDLIST\DEBUG\VC120.IDB
D:\PRAKASD\CONSOLEAPPLICATION1\STACKUSINGLINKEDLIST\DEBUG\STACK.OBJ
