^D:\PRAKASD\CONSOLEAPPLICATION1\SINGLELINKEDLIST\SINGLELINKEDLIST.CPP
D:\PRAKASD\CONSOLEAPPLICATION1\SINGLELINKEDLIST\DEBUG\VC120.PDB
D:\PRAKASD\CONSOLEAPPLICATION1\SINGLELINKEDLIST\DEBUG\VC120.IDB
D:\PRAKASD\CONSOLEAPPLICATION1\SINGLELINKEDLIST\DEBUG\SINGLELINKEDLIST.OBJ
